[
	{
		"payment_type": "bank_transfer",
		"payment_channel": "bni",
		"title": "ATM",
		"guidances": [
			"Pada menu utama, pilih Menu Lainnya.",
			"Pilih Transfer.",
			"Pilih Rekening Tabungan.",
			"Pilih Ke Rekening BNI.",
			"Masukkan nomor virtual account dan pilih Tekan Jika Benar.",
			"Masukkan jumlah tagihan yang akan anda bayar secara lengkap. Pembayaran dengan jumlah tidak sesuai akan otomatis ditolak.",
			"Jumlah yang dibayarkan, nomor rekening dan nama Merchant akan ditampilkan. Jika informasi telah sesuai, tekan Ya.",
			"Transaksi Anda sudah selesai."
		]
	},
	{
		"payment_type": "bank_transfer",
		"payment_channel": "bni",
		"title": "Internet Banking",
		"guidances": [
			"Ketik alamat https://ibank.bni.co.id kemudian klik Masuk.",
			"Silakan masukkan User ID dan Password.",
			"Klik menu Transfer kemudian pilih Tambah Rekening Favorit.",
			"Masukkan nama, nomor rekening, dan email, lalu klik Lanjut.",
			"Masukkan Kode Otentikasi dari token Anda dan klik Lanjut.",
			"Kembali ke menu utama dan pilih Transfer lalu Transfer Antar Rekening BNI.",
			"Pilih rekening yang telah Anda favoritkan sebelumnya di Rekening Tujuan lalu lanjutkan pengisian, dan tekan Lanjut.",
			"Pastikan detail transaksi Anda benar, lalu masukkan Kode Otentikasi dan tekan Lanjut."
		]
	},
	{
		"payment_type": "bank_transfer",
		"payment_channel": "bni",
		"title": "Mobile Banking",
		"guidances": [
			"Buka aplikasi BNI Mobile Banking dan login.",
			"Pilih menu Transfer.",
			"Pilih menu Virtual Account Billing.",
			"Pilih rekening debit yang akan digunakan.",
			"Pilih menu Input Baru dan masukkan 16 digit nomor Virtual Account.",
			"Informasi tagihan akan muncul pada halaman validasi.",
			"Jika informasi telah sesuai, masukkan Password Transaksi dan klik Lanjut.",
			"Transaksi Anda akan diproses."
		]
	},
	{
		"payment_type": "echannel",
		"payment_channel": "mandiri",
		"title": "ATM",
		"guidances": [
			"Pada menu utama, pilih Bayar/Beli.",
			"Pilih Lainnya.",
			"Pilih Multi Payment.",
			"Masukkan 70012 (kode perusahaan Midtrans) lalu tekan Benar.",
			"Masukkan Kode Pembayaran Anda lalu tekan Benar.",
			"Pada halaman konfirmasi akan muncul detail pembayaran Anda. Jika informasi telah sesuai tekan Ya."
		]
	},
	{
		"payment_type": "echannel",
		"payment_channel": "mandiri",
		"title": "Mobile Banking",
		"guidances": [
			"Login ke Internet Banking Mandiri (https://ibank.bankmandiri.co.id/).",
			"Pada menu utama, pilih Bayar, lalu pilih Multi Payment.",
			"Pilih akun Anda di Dari Rekening, kemudian di Penyedia Jasa pilih Midtrans.",
			"Masukkan Kode Pembayaran Anda dan klik Lanjutkan.",
			"Konfirmasi pembayaran Anda menggunakan Mandiri Token."
		]
	},
	{
		"payment_type": "bank_transfer",
		"payment_channel": "bri",
		"title": "ATM",
		"guidances": [
			"Pilih menu utama, pilih Transaksi Lain.",
			"Pilih Pembayaran.",
			"Pilih Lainnya.",
			"Pilih BRIVA.",
			"Masukkan Nomor BRIVA pelanggan dan pilih Benar.",
			"Jumlah pembayaran, nomor BRIVA dan nama merchant akan muncul pada halaman konfirmasi pembayaran. Jika informasi yang dicantumkan benar, pilih Ya.",
			"Pembayaran telah selesai. Simpan bukti pembayaran Anda."
		]
	},
	{
		"payment_type": "bank_transfer",
		"payment_channel": "bri",
		"title": "Internet Banking",
		"guidances": [
			"Masuk pada Internet Banking BRI.",
			"Pilih menu Pembayaran & Pembelian.",
			"Pilih sub menu BRIVA.",
			"Masukkan Nomor BRIVA.",
			"Jumlah pembayaran, nomor pembayaran, dan nama merchant akan muncul pada halaman konfirmasi pembayaran. Jika informasi yang dicantumkan benar, pilih Kirim.",
			"Masukkan password dan mToken, pilih Kirim.",
			"Pembayaran telah selesai. Untuk mencetak bukti transaksi, pilih Cetak."
		]
	},
	{
		"payment_type": "bank_transfer",
		"payment_channel": "bri",
		"title": "Mobile Banking",
		"guidances": [
			"Masuk ke dalam aplikasi BRI Mobile, pilih Mobile Banking BRI.",
			"Pilih Pembayaran, lalu pilih BRIVA.",
			"Masukkan nomor BRIVA.",
			"Jumlah pembayaran, nomor pembayaran, dan nama merchant akan muncul pada halaman konfirmasi pembayaran. Jika informasi yang dicantumkan benar, pilih Continue.",
			"Masukkan Mobile Banking BRI PIN, pilih Ok..",
			"Pembayaran telah selesai. Simpan notifikasi sebagai bukti pembayaran."
		]
	},
	{
		"payment_type": "bank_transfer",
		"payment_channel": "bca",
		"title": "ATM",
		"guidances": [
			"Pada menu utama, pilih Transaksi Lainnya.",
			"Pilih Transfer.",
			"Pilih Ke Rek BCA Virtual Account.",
			"Masukkan Nomor Rekening pembayaran (11 digit) Anda lalu tekan Benar.",
			"Masukkan jumlah tagihan yang akan anda bayar.",
			"Pada halaman konfirmasi transfer akan muncul detail pembayaran Anda. Jika informasi telah sesuai tekan Ya."
		]
	},
	{
		"payment_type": "bank_transfer",
		"payment_channel": "bca",
		"title": "Internet Banking",
		"guidances": [
			"Pilih menu Transfer Dana.",
			"Pilih Transfer ke BCA Virtual Account.",
			"Masukkan nomor BCA Virtual Account, atau pilih Dari Daftar Transfer.",
			"Jumlah yang akan ditransfer, nomor rekening dan nama merchant akan muncul di halaman konfirmasi pembayaran, jika informasi benar klik Lanjutkan.",
			"Ambil BCA Token Anda dan masukkan KEYBCA Response APPLI 1 dan Klik Submit.",
			"Transaksi Anda selesai."
		]
	},
	{
		"payment_type": "bank_transfer",
		"payment_channel": "bca",
		"title": "Mobile Banking",
		"guidances": [
			"Lakukan log in pada aplikasi BCA Mobile.",
			"Pilih menu m-BCA, kemudian masukkan kode akses m-BCA.",
			"Pilih m-Transfer > BCA Virtual Account.",
			"Pilih dari Daftar Transfer, atau masukkan Nomor Virtual Account tujuan.",
			"Masukkan jumlah yang ingin dibayarkan.",
			"Masukkan pin m-BCA.",
			"Pembayaran selesai. Simpan notifikasi yang muncul sebagai bukti pembayaran."
		]
	},
	{
		"payment_type": "bank_transfer",
		"payment_channel": "permata",
		"title": "Permata",
		"guidances": [
			"Pada menu utama, pilih Transaksi Lainnya.",
			"Pilih Pembayaran.",
			"Pilih Pembayaran Lainnya.",
			"Pilih Virtual Account.",
			"Masukkan 16 digit No. Virtual Account yang dituju, lalu tekan Benar.",
			"Pada halaman konfirmasi transfer akan muncul jumlah yang dibayarkan, nomor rekening, & nama Merchant. Jika informasi telah sesuai tekan Benar.",
			"Pilih rekening pembayaran Anda dan tekan Benar."
		]
	},
	{
		"payment_type": "gopay",
		"payment_channel": "",
		"title": "Gopay",
		"guidances": [
			"Buka aplikasi Gojek atau e-wallet lain Anda.",
			"Pindai kode QR yang ada pada monitor Anda.",
			"Periksa detail transaksi Anda pada aplikasi, lalu tap tombol Bayar.",
			"Masukkan PIN Anda.",
			"Transaksi Anda telah selesai."
		]
	},
	{
		"payment_type": "shoppe_pay",
		"payment_channel": "",
		"title": "Shopee Pay",
		"guidances": [
			"Buka aplikasi Shopee atau e-wallet lain Anda.",
			"Pindai kode QR yang ada pada monitor Anda.",
			"Periksa detail transaksi Anda pada aplikasi, lalu tap tombol Bayar.",
			"Masukkan PIN Anda.",
			"Transaksi Anda sudah selesai."
		]
	},
	{
		"payment_type": "cstore",
		"payment_channel": "alfamart",
		"title": "Alfamart",
		"guidances": [
			"Setelah melakukan konfirmasi pembayaran, Anda akan diberikan Kode Pembayaran yang unik.",
			"Salinlah Kode Pembayaran Anda dan jumlah pembayaran yang akan dibayarkan. Jangan Khawatir, Kami juga akan mengirimkan salinan Kode Pembayaran dan Instruksi Pembayaran melalui email kepada Anda.",
			"Silakan pergi ke gerai Alfamart, Alfamidi, atau Dan+Dan terdekat dan berikanlah nomorKode Pembayaran Anda ke kasir.",
			"Kasir akan mengkonfirmasi transaksi dengan menanyakan jumlah transaksi dan nama merchant.",
			"Konfirmasikan pembayaran Anda ke kasir.",
			"Transaksi Anda berhasil! Anda akan mendapatkan email konfirmasi pembayaran dan simpanlah struk transaksi Anda."
		]
	},
	{
		"payment_type": "cstore",
		"payment_channel": "indomaret",
		"title": "Indomaret",
		"guidances": [
			"Setelah melakukan konfirmasi pembayaran, Anda akan diberikan Kode Pembayaran yang unik.",
			"Salinlah Kode Pembayaran Anda dan jumlah pembayaran yang akan dibayarkan. Jangan Khawatir, Kami juga akan mengirimkan salinan Kode Pembayaran dan Instruksi Pembayaran melalui email kepada Anda.",
			"Pergi ke toko Indomaret terdekat dan berikanlah nomor Kode Pembayaran Anda ke kasir.",
			"Kasir Indomaret akan mengkonfirmasi transaksi dengan menanyakan jumlah pembayaran dan nama merchant.",
			"Konfirmasikan pembayaran Anda ke kasir.",
			"Transaksi Anda berhasil! Anda akan mendapatkan email konfirmasi pembayaran dan Simpanlah struk transaksi Indomaret Anda."
		]
	},
	{
		"payment_type": "akulaku",
		"payment_channel": "",
		"title": "Akulaku",
		"guidances": [
			"Tekan tombol \"Bayar Sekarang\", lalu Anda akan diarahkan ke halaman Pusat Pembayaran Akulaku.",
			"Pilih tenor cicilan yang diinginkan, lalu Login ke akun Akulaku Anda dengan memasukkan nomor ponsel dan password.",
			"Masukkan kode verifikasi (OTP) yang telah dikirimkan ke ponsel Anda, lalu klik tombol \"Selanjutnya\".",
			"Akan tampil halaman konfirmasi, lalu Anda dapat menyelesaikan transaksi."
		]
	},
	{
		"payment_type": "cimb_clicks",
		"payment_channel": "",
		"title": "OCTO Clicks",
		"guidances": [
			"Pastikan Anda telah memiiki User ID OCTO Clicks dan sudah mendaftarkan mPIN sebelum melakukan pembayaran melalui OCTO Clicks ini.",
			"Pembayaran melalui OCTO Clicks akan diproses secara online, saldo rekening CIMB Anda akan didebet secara otomatis sesuai jumlah pembelanjaan Anda.",
			"Transaksi Anda akan dibatalkan jika pembayaran tidak diselesaikan dalam 2 jam.",
			"Pastikan tidak ada pop up blocker yang aktif pada browser Anda."
		]
	},
	{
		"payment_type": "bca_klikpay",
		"payment_channel": "",
		"title": "BCA Klikpay",
		"guidances": [
			"Setelah Anda menekan tombol \"Bayar Sekarang\", Anda akan diarahkan ke halaman pembayaran BCA KlikPay.",
			"Setelah Login ke Akun BCA Klikpay Anda dengan memasukkan alamat email dan password, maka akan tampil informasi data transaksi seperti nama merchant, waktu transaksi, dan jumlah yang harus dibayar. Pilihlah jenis pembayaran KlikBCA atau BCA Card untuk transaksi tersebut.",
			"Untuk otorisasi pembayaran dengan BCA KlikPay, tekan tombol \"kirim OTP\", dan Anda akan menerima kode OTP (One Time Password) yang dikirim melalui SMS ke handphone Anda. Masukkan kode OTP tersebut pada kolom yang tersedia.",
			"Apabila kode OTP yang Anda masukkan benar, transaksi pembayaran akan langsung diproses dan saldo rekening Anda (untuk jenis pembayaran KlikBCA) atau limit BCA Card Anda (untuk jenis pembayaran BCA Card) akan berkurang sejumlah nilai transaksi.",
			"Status keberhasilan transaksi Anda akan tampil pada layar transaksi dan Anda akan menerima email notifikasi.",
			"Informasi lebih lanjut tentang BCA KlikPay dapat hubungi Halo BCA di 1500888 atau kunjungi http://klikbca.com/KlikPay/klikpay.html"
		]
	},
	{
		"payment_type": "danamon_online",
		"payment_channel": "",
		"title": "Danamon Online Banking",
		"guidances": [
			"Masukkan User ID dan Password Danamon Online Banking Anda dan pilih sumber rekening untuk pembayaran Anda.",
			"Cek rincian informasi transaksi Anda, masukkan Kode Token, lalu tekan lanjut.",
			"Konfirmasi transaksi pembayaran akan muncul, pembayaran selesai. Simpan informasi referensi merchant dan referensi pembayaran, tekan Lanjut untuk kembali ke situs merchant."
		]
	},
	{
		"payment_type": "uob_ezpay",
		"payment_channel": "",
		"title": "Via Web",
		"guidances": [
			"Klik \"BAYAR SEKARANG\", Anda akan diarahkan ke situs UOB Personal Internet Banking.",
			"Masuk menggunakan userID & password Anda.",
			"Masukkan OTP yang dikirim via SMS ketika diminta.",
			"Pilih akun untuk melakukan pembayaran, lalu pilih \"Lanjutkan\".",
			"Periksa detail pembayaran, lalu masukkan OTP yang dikirim via SMS.",
			"Konfirmasi pembayaran."
		]
	},
	{
		"payment_type": "uob_ezpay",
		"payment_channel": "",
		"title": "Via App",
		"guidances": [
			"Klik \"BAYAR SEKARANG\", Anda akan diarahkan ke aplikasi TMRW.",
			"Masuk menggunakan userID & password Anda.",
			"Pilih akun untuk melanjutkan pembayaran, lalu klik \"Lanjutkan\".",
			"Periksa detail pembayaran, lalu swipe kanan untuk mengkonfirmasi detail.",
			"Masukkan Secure PIN untuk menyelesaikan pembayaran."
		]
	}
]